[
  {
  "_id":1,
  "name":"abc airlines",
  "startingPoint":"GHY",
  "endingPoint":"HYD",
  "durationHours":10,
  "pilotId":234,
  "planeId":352767
  },
  {
      "_id":2,
      "name":"EGH Airlines",
      "startingPoint":"HSD",
      "endingPoint":"JS",
      "durationHours":8,
      "pilotId":7263,
      "planeId":16262
  },
  {
      "_id":3,
      "name":"JDA Airlines",
      "startingPoint":"DGDS",
      "endingPoint":"SJHD",
      "durationHours":13,
      "pilotId":13255,
      "planeId":27644
  },
  {
      "_id":4,
      "name":"indian Airlines",
      "startingPoint":"HDD",
      "endingPoint":"SHDF",
      "durationHours":9,
      "pilotId":12235,
      "planeId":12233
  },
  {
  
  "_id":5,
      "name":"America Airlines",
      "startingPoint":"HJADG",
      "endingPoint":"JHD",
      "durationHours":5,
      "pilotId":182735,
      "planeId":1736833
  }
  
  
  
  ]